…
challenge <- read_csv(readr_example("challenge.csv"))

## Warning in rbind(names(probs), probs_f): number of columns of result is not
## a multiple of vector length (arg 1)

## Warning: 1000 parsing failures.
## row # A tibble: 5 x 5 col     row col   expected               actual             file               expected   <int> <chr> <chr>                  <chr>              <chr>              actual 1  1001 x     no trailing characters .23837975086644292 'C:/Users/mirac/O~ file 2  1002 x     no trailing characters .41167997173033655 'C:/Users/mirac/O~ row 3  1003 x     no trailing characters .7460716762579978  'C:/Users/mirac/O~ col 4  1004 x     no trailing characters .723450553836301   'C:/Users/mirac/O~ expected 5  1005 x     no trailing characters .614524137461558   'C:/Users/mirac/O~
## ... ................. ... .......................................................................... ........ .......................................................................... ...... .......................................................................... .... .......................................................................... ... .......................................................................... ... .......................................................................... ........ ..........................................................................
## See problems(...) for more details.

Use problems() to explore in depth:

problems(challenge)

## # A tibble: 1,000 x 5
##      row col   expected               actual             file             
##    <int> <chr> <chr>                  <chr>              <chr>            
##  1  1001 x     no trailing characters .23837975086644292 'C:/Users/mirac/~
##  2  1002 x     no trailing characters .41167997173033655 'C:/Users/mirac/~
##  3  1003 x     no trailing characters .7460716762579978  'C:/Users/mirac/~
##  4  1004 x     no trailing characters .723450553836301   'C:/Users/mirac/~
##  5  1005 x     no trailing characters .614524137461558   'C:/Users/mirac/~
##  6  1006 x     no trailing characters .473980569280684   'C:/Users/mirac/~
##  7  1007 x     no trailing characters .5784610391128808  'C:/Users/mirac/~
##  8  1008 x     no trailing characters .2415937229525298  'C:/Users/mirac/~
##  9  1009 x     no trailing characters .11437866208143532 'C:/Users/mirac/~
## 10  1010 x     no trailing characters .2983446326106787  'C:/Users/mirac/~
## # ... with 990 more rows
…
