…
Comparing missing vs non-missing values by creating new variable using is.na()

Ex: compare the scheduled departure times for cancelled and noncancelled times.

nycflights13::flights %>%
  mutate(
    cancelled = is.na(dep_time),
    sched_hour = sched_dep_time %/% 100,
    sched_min = sched_dep_time %% 100,
    sched_dep_time = sched_hour + sched_min / 60
  )

## # A tibble: 336,776 x 22
##     year month   day dep_time sched_dep_time dep_delay arr_time
##    <int> <int> <int>    <int>          <dbl>     <dbl>    <int>
##  1  2013     1     1      517           5.25        2.      830
##  2  2013     1     1      533           5.48        4.      850
##  3  2013     1     1      542           5.67        2.      923
##  4  2013     1     1      544           5.75       -1.     1004
##  5  2013     1     1      554           6.00       -6.      812
##  6  2013     1     1      554           5.97       -4.      740
##  7  2013     1     1      555           6.00       -5.      913
##  8  2013     1     1      557           6.00       -3.      709
##  9  2013     1     1      557           6.00       -3.      838
## 10  2013     1     1      558           6.00       -2.      753
## # ... with 336,766 more rows, and 15 more variables: sched_arr_time <int>,
## #   arr_delay <dbl>, carrier <chr>, flight <int>, tailnum <chr>,
## #   origin <chr>, dest <chr>, air_time <dbl>, distance <dbl>, hour <dbl>,
## #   minute <dbl>, time_hour <dttm>, cancelled <lgl>, sched_hour <dbl>,
## #   sched_min <dbl>
…
