Tibbles | Thean C. Lim
…
** This post is heavily based on R for Data Science. Please consider to buy that book if you find this post useful.**

The tibble package is part of the tidyverse package.

library (tidyverse)

Creating Tibbles

Coerce into tibble using as.tibble

Most other R packages use regular data frames, so you might want to coerce a data frame to a tibble. You can do that with as.tibble():

as.tibble(iris)

## # A tibble: 150 x 5
##    Sepal.Length Sepal.Width Petal.Length Petal.Width Species
##           <dbl>       <dbl>        <dbl>       <dbl> <fct>  
##  1         5.10        3.50         1.40       0.200 setosa 
##  2         4.90        3.00         1.40       0.200 setosa 
##  3         4.70        3.20         1.30       0.200 setosa 
##  4         4.60        3.10         1.50       0.200 setosa 
##  5         5.00        3.60         1.40       0.200 setosa 
##  6         5.40        3.90         1.70       0.400 setosa 
##  7         4.60        3.40         1.40       0.300 setosa 
##  8         5.00        3.40         1.50       0.200 setosa 
##  9         4.40        2.90         1.40       0.200 setosa 
## 10         4.90        3.10         1.50       0.100 setosa 
## # ... with 140 more rows
…
There are two main differences in the usage of a tibble versus a classic data.frame: printing and subsetting.

Printing

Tibbles are designed so that you don’t accidentally overwhelm your console when you print large data frames. It only shows the first 10 rows, and all the columns that fit on screen. In addition to its name, each column reports its type.

tibble(
  a = lubridate::now() + runif(1e3) * 86400,
  b = lubridate::today() + runif(1e3) * 30,
  c = 1:1e3,
  d = runif(1e3),
  e = sample(letters, 1e3, replace = TRUE)
)

## # A tibble: 1,000 x 5
##    a                   b              c     d e    
##    <dttm>              <date>     <int> <dbl> <chr>
##  1 2018-07-10 01:58:26 2018-08-07     1 0.751 m    
##  2 2018-07-09 14:09:06 2018-07-17     2 0.503 c    
##  3 2018-07-10 05:34:49 2018-07-27     3 0.388 z    
##  4 2018-07-09 20:07:05 2018-08-01     4 0.520 n    
##  5 2018-07-10 04:54:28 2018-07-24     5 0.351 g    
##  6 2018-07-09 21:16:36 2018-08-04     6 0.504 r    
##  7 2018-07-09 10:23:43 2018-07-13     7 0.419 i    
##  8 2018-07-09 10:19:01 2018-07-23     8 0.260 c    
##  9 2018-07-09 19:16:31 2018-08-02     9 0.216 v    
## 10 2018-07-10 07:01:25 2018-07-19    10 0.341 e    
## # ... with 990 more rows
…
